<?xml version="1.0" standalone="no"?>
<!DOCTYPE svg PUBLIC "-//W3C//DTD SVG 20010904//EN"
 "http://www.w3.org/TR/2001/REC-SVG-20010904/DTD/svg10.dtd">
<svg version="1.0" xmlns="http://www.w3.org/2000/svg"
 width="512.000000pt" height="512.000000pt" viewBox="0 0 512.000000 512.000000"
 preserveAspectRatio="xMidYMid meet">
<metadata>
Created by potrace 1.14, written by Peter Selinger 2001-2017
</metadata>
<g transform="translate(0.000000,512.000000) scale(0.100000,-0.100000)"
fill="#000000" stroke="none">
<path d="M2357 4873 l-28 -4 48 -42 c241 -210 379 -474 424 -809 18 -129 8
-210 -34 -300 -21 -42 -37 -83 -37 -91 0 -12 35 -69 225 -362 56 -87 115 -201
115 -223 0 -11 -12 -35 -26 -52 -39 -46 -86 -67 -206 -94 -33 -8 -37 -38 -13
-106 26 -74 20 -108 -25 -151 l-39 -37 16 -40 c19 -50 12 -81 -30 -128 l-32
-37 0 -151 c0 -166 -6 -188 -68 -254 -61 -64 -136 -72 -492 -50 -173 10 -212
9 -292 -4 -53 -9 -107 -25 -127 -37 -50 -31 -68 -98 -74 -278 l-5 -143 -539 0
c-504 0 -539 1 -546 18 -15 36 -6 364 12 447 72 330 221 577 616 1020 276 310
377 462 414 622 20 90 20 142 1 234 -39 186 -154 307 -345 364 -69 20 -205 30
-296 21 -68 -8 -70 -9 -122 -64 -136 -144 -271 -333 -364 -510 -30 -56 -58
-99 -63 -95 -4 5 -5 3 -2 -3 6 -11 -58 -183 -72 -194 -3 -3 -6 -9 -6 -15 -1
-23 -17 -75 -23 -75 -4 0 -8 -15 -9 -32 -2 -18 -7 -34 -12 -36 -6 -2 -8 -9 -5
-17 3 -7 0 -16 -5 -20 -6 -3 -9 -11 -6 -16 4 -5 3 -14 -1 -21 -4 -7 -9 -22
-10 -34 -1 -11 -9 -50 -18 -85 -84 -348 -44 -846 100 -1236 72 -198 229 -484
337 -618 l24 -29 31 26 c84 71 239 118 385 118 186 -1 326 -59 457 -190 124
-125 181 -249 196 -431 7 -76 -9 -227 -26 -260 -8 -13 7 -21 93 -47 254 -79
436 -106 707 -106 226 0 349 14 555 64 669 161 1243 619 1545 1235 81 166 130
294 170 448 102 396 103 774 4 1177 -14 58 -31 111 -36 118 -6 6 -7 12 -3 12
4 0 2 7 -5 15 -7 8 -9 15 -5 15 4 0 2 7 -5 15 -7 8 -10 15 -6 15 4 0 0 10 -8
23 -8 12 -16 31 -18 42 -2 11 -7 23 -11 26 -4 3 -9 16 -10 27 -1 12 -5 22 -10
22 -4 0 -6 4 -3 9 4 5 1 11 -4 13 -6 2 -12 13 -13 26 0 12 -5 22 -10 22 -4 0
-5 5 -2 10 3 6 1 10 -5 10 -6 0 -8 5 -5 10 3 6 1 10 -5 10 -6 0 -8 5 -5 10 3
6 1 10 -5 10 -6 0 -8 5 -5 10 3 6 1 10 -5 10 -6 0 -9 4 -6 9 3 5 -1 12 -10 15
-9 4 -14 13 -10 22 3 8 2 13 -3 10 -9 -6 -38 53 -33 67 1 5 -2 6 -7 3 -9 -6
-27 31 -23 47 1 5 -2 6 -7 3 -5 -3 -11 0 -14 7 -2 6 -30 47 -61 90 -31 43 -53
83 -50 89 4 6 2 8 -3 5 -14 -9 -47 29 -37 44 4 7 3 10 -3 6 -15 -9 -57 39 -47
55 4 7 3 10 -1 5 -5 -4 -60 44 -124 106 -64 62 -147 138 -186 168 -246 195
-554 350 -848 429 -211 56 -332 72 -572 75 -121 2 -233 1 -248 -2z"/>
</g>
</svg>
